testbenches/dump.vcd
$date
	Fri May 14 20:47:30 2021
$end
$version
	Icarus Verilog
$end
$timescale
	1ps
$end
$scope module cnthex $end
$var wire 1 ! clk $end
$var reg 8 " hex [7:0] $end
$upscope $end
$scope module comp $end
$var wire 1 # CLK $end
$var wire 16 $ pwm_diod [15:0] $end
$var wire 16 % seg_value [15:0] $end
$var wire 16 & wo_port2_value [15:0] $end
$var wire 4 ' wo_port2_reg_num [3:0] $end
$var wire 1 ( wo_port2_enable $end
$var wire 16 ) wo_port1_value [15:0] $end
$var wire 4 * wo_port1_reg_num [3:0] $end
$var wire 1 + wo_port1_enable $end
$var wire 32 , rom_fetch_bus [31:0] $end
$var wire 16 - ro_port2_value [15:0] $end
$var wire 4 . ro_port2_reg_num [3:0] $end
$var wire 16 / ro_port1_value [15:0] $end
$var wire 4 0 ro_port1_reg_num [3:0] $end
$var wire 16 1 ram_wo_port_value [15:0] $end
$var wire 1 2 ram_wo_port_enable $end
$var wire 16 3 ram_wo_port_address [15:0] $end
$var wire 16 4 ram_ro_port_value [15:0] $end
$var wire 1 5 ram_ro_port_enable $end
$var wire 16 6 ram_ro_port_address [15:0] $end
$var wire 32 7 fetch_regfile_bus [31:0] $end
$var wire 16 8 fetch_decode_bus [15:0] $end
$var wire 16 9 exec_wb_bus [15:0] $end
$var wire 8 : exec_regfile_alu_flags [7:0] $end
$var wire 17 ; exec_fetch_bus [16:0] $end
$var wire 16 < diod_value [15:0] $end
$var wire 16 = decode_exec_bus [15:0] $end
$var wire 1 > clk $end
$var wire 8 ? alu_flags [7:0] $end
$var wire 1 @ DS_G $end
$var wire 1 A DS_F $end
$var wire 1 B DS_EN4 $end
$var wire 1 C DS_EN3 $end
$var wire 1 D DS_EN2 $end
$var wire 1 E DS_EN1 $end
$var wire 1 F DS_E $end
$var wire 1 G DS_D $end
$var wire 1 H DS_C $end
$var wire 1 I DS_B $end
$var wire 1 J DS_A $end
$var wire 1 K DIOD $end
$scope module Clkdiv $end
$var wire 1 # clk $end
$var wire 1 > clk_out $end
$var reg 16 L cnt [15:0] $end
$upscope $end
$scope module decode $end
$var wire 1 > clk $end
$var wire 16 M out_insn [15:0] $end
$var wire 16 N w_insn [15:0] $end
$var wire 4 O store_value_reg [3:0] $end
$var wire 4 P op2_reg_num [3:0] $end
$var wire 4 Q op1_reg_num [3:0] $end
$var wire 4 R base_addr_reg [3:0] $end
$var reg 16 S insn [15:0] $end
$var reg 4 T regfile_port1_num [3:0] $end
$var reg 4 U regfile_port2_num [3:0] $end
$upscope $end
$scope module exec $end
$var wire 1 > clk $end
$var wire 16 V fetch_program_counter [15:0] $end
$var wire 1 W is_nop $end
$var wire 16 X out_insn [15:0] $end
$var wire 16 Y w_insn [15:0] $end
$var wire 16 Z value_to_write [15:0] $end
$var wire 16 [ ro_port2_value [15:0] $end
$var wire 16 \ ro_port1_value [15:0] $end
$var wire 16 ] op2 [15:0] $end
$var wire 16 ^ op1 [15:0] $end
$var wire 16 _ offset [15:0] $end
$var wire 8 ` new_alu_flags [7:0] $end
$var wire 1 2 mem_wo_port_enable $end
$var wire 1 5 mem_ro_port_enable $end
$var wire 1 a fetch_branch_flag $end
$var wire 8 b alu_flags [7:0] $end
$var wire 16 c address_offset [15:0] $end
$var wire 16 d address_base [15:0] $end
$var reg 4 e by_pass_reg_num [3:0] $end
$var reg 16 f by_pass_reg_value [15:0] $end
$var reg 16 g insn [15:0] $end
$var reg 16 h mem_ro_port_address [15:0] $end
$var reg 16 i mem_wo_port_address [15:0] $end
$var reg 16 j mem_wo_port_value [15:0] $end
$var reg 16 k res [15:0] $end
$var reg 1 + wo_port_enable $end
$var reg 4 l wo_port_reg_num [3:0] $end
$var reg 16 m wo_port_value [15:0] $end
$upscope $end
$scope module fetch $end
$var wire 1 n branch_flag $end
$var wire 1 > clk $end
$var wire 16 o exec_program_counter [15:0] $end
$var wire 16 p program_counter [15:0] $end
$var wire 16 q regfile_read_value [15:0] $end
$var wire 16 r rom_address [15:0] $end
$var wire 16 s rom_read_value [15:0] $end
$var wire 16 t regfile_write_value [15:0] $end
$var wire 16 u next_program_counter [15:0] $end
$var wire 16 v insn [15:0] $end
$var reg 1 w stall_controller $end
$upscope $end
$scope module out_controller $end
$var wire 1 # CLK $end
$var wire 16 x diod_pwm [15:0] $end
$var wire 16 y seg_hex [15:0] $end
$var wire 4 z segen [3:0] $end
$var wire 7 { seg_pins [6:0] $end
$var wire 28 | seg [27:0] $end
$var wire 1 } diod_fast_clk $end
$var wire 16 ~ diod_clock_threshold [15:0] $end
$var wire 1 !" clkdiv $end
$var wire 1 @ DS_G $end
$var wire 1 A DS_F $end
$var wire 1 B DS_EN4 $end
$var wire 1 C DS_EN3 $end
$var wire 1 D DS_EN2 $end
$var wire 1 E DS_EN1 $end
$var wire 1 F DS_E $end
$var wire 1 G DS_D $end
$var wire 1 H DS_C $end
$var wire 1 I DS_B $end
$var wire 1 J DS_A $end
$var wire 1 K DIOD $end
$scope module Clkdiv1 $end
$var wire 1 # clk $end
$var wire 1 !" clk_out $end
$var reg 6 "" cnt [5:0] $end
$upscope $end
$scope module Clkdiv2 $end
$var wire 1 # clk $end
$var wire 1 } clk_out $end
$var reg 14 #" cnt [13:0] $end
$upscope $end
$scope module Hex2seg_0 $end
$var wire 4 $" hex [3:0] $end
$var reg 7 %" seg [6:0] $end
$upscope $end
$scope module Hex2seg_1 $end
$var wire 4 &" hex [3:0] $end
$var reg 7 '" seg [6:0] $end
$upscope $end
$scope module Hex2seg_2 $end
$var wire 4 (" hex [3:0] $end
$var reg 7 )" seg [6:0] $end
$upscope $end
$scope module Hex2seg_3 $end
$var wire 4 *" hex [3:0] $end
$var reg 7 +" seg [6:0] $end
$upscope $end
$scope module SegMgr $end
$var wire 1 !" clk $end
$var wire 28 ," seg [27:0] $end
$var reg 2 -" cnt [1:0] $end
$var reg 7 ." seg_pins [6:0] $end
$var reg 4 /" segen [3:0] $end
$upscope $end
$scope module pwm_diod $end
$var wire 16 0" duty_cycle [15:0] $end
$var wire 1 # ref_clk $end
$var wire 1 K clk $end
$var reg 16 1" cnt [15:0] $end
$upscope $end
$upscope $end
$scope module ram $end
$var wire 1 > clk $end
$var wire 16 2" diod_output [15:0] $end
$var wire 16 3" pwm_output [15:0] $end
$var wire 16 4" ro_port_address [15:0] $end
$var wire 1 5 ro_port_enable $end
$var wire 16 5" seg_output [15:0] $end
$var wire 16 6" wo_port_address [15:0] $end
$var wire 1 2 wo_port_enable $end
$var wire 16 7" wo_port_value [15:0] $end
$var reg 16 8" ro_port_value [15:0] $end
$upscope $end
$scope module regfile $end
$var wire 8 9" alu_flags_output [7:0] $end
$var wire 1 > clk $end
$var wire 16 :" fetch_write_value [15:0] $end
$var wire 8 ;" new_alu_flags [7:0] $end
$var wire 4 <" ro_port1_reg_num [3:0] $end
$var wire 4 =" ro_port2_reg_num [3:0] $end
$var wire 1 + wo_port1_enable $end
$var wire 4 >" wo_port1_reg_num [3:0] $end
$var wire 16 ?" wo_port1_value [15:0] $end
$var wire 16 @" zero [15:0] $end
$var wire 16 A" wo_port2_value [15:0] $end
$var wire 4 B" wo_port2_reg_num [3:0] $end
$var wire 1 ( wo_port2_enable $end
$var wire 16 C" fetch_read_value [15:0] $end
$var reg 8 D" alu_flags [7:0] $end
$var reg 16 E" program_counter [15:0] $end
$var reg 16 F" ro_port1_value [15:0] $end
$var reg 16 G" ro_port2_value [15:0] $end
$var reg 16 H" stack_pointer [15:0] $end
$upscope $end
$scope module rom $end
$var wire 16 I" fetch_address [15:0] $end
$var reg 16 J" fetch_read_value [15:0] $end
$upscope $end
$scope module wb $end
$var wire 1 > clk $end
$var wire 16 K" mem_ro_port_value [15:0] $end
$var wire 16 L" w_insn [15:0] $end
$var wire 16 M" regfile_wo_port_value [15:0] $end
$var wire 4 N" regfile_wo_port_reg_num [3:0] $end
$var reg 16 O" insn [15:0] $end
$var reg 1 ( regfile_wo_port_enable $end
$upscope $end
$upscope $end
$scope module controlled_clkdiv $end
$var wire 1 P" fast_clk $end
$var wire 16 Q" threshold [15:0] $end
$var wire 1 R" clk_out $end
$var reg 16 S" cnt [15:0] $end
$upscope $end
$scope module tb1 $end
$var wire 16 T" pwm_diod [15:0] $end
$var wire 16 U" seg_value [15:0] $end
$var wire 16 V" wo_port2_value [15:0] $end
$var wire 4 W" wo_port2_reg_num [3:0] $end
$var wire 1 X" wo_port2_enable $end
$var wire 16 Y" wo_port1_value [15:0] $end
$var wire 4 Z" wo_port1_reg_num [3:0] $end
$var wire 1 [" wo_port1_enable $end
$var wire 32 \" rom_fetch_bus [31:0] $end
$var wire 16 ]" ro_port2_value [15:0] $end
$var wire 4 ^" ro_port2_reg_num [3:0] $end
$var wire 16 _" ro_port1_value [15:0] $end
$var wire 4 `" ro_port1_reg_num [3:0] $end
$var wire 16 a" ram_wo_port_value [15:0] $end
$var wire 1 b" ram_wo_port_enable $end
$var wire 16 c" ram_wo_port_address [15:0] $end
$var wire 16 d" ram_ro_port_value [15:0] $end
$var wire 1 e" ram_ro_port_enable $end
$var wire 16 f" ram_ro_port_address [15:0] $end
$var wire 32 g" fetch_regfile_bus [31:0] $end
$var wire 16 h" fetch_decode_bus [15:0] $end
$var wire 16 i" exec_wb_bus [15:0] $end
$var wire 8 j" exec_regfile_alu_flags [7:0] $end
$var wire 17 k" exec_fetch_bus [16:0] $end
$var wire 16 l" diod_value [15:0] $end
$var wire 16 m" decode_exec_bus [15:0] $end
$var wire 1 n" clk $end
$var wire 8 o" alu_flags [7:0] $end
$var wire 1 p" DS_G $end
$var wire 1 q" DS_F $end
$var wire 1 r" DS_EN4 $end
$var wire 1 s" DS_EN3 $end
$var wire 1 t" DS_EN2 $end
$var wire 1 u" DS_EN1 $end
$var wire 1 v" DS_E $end
$var wire 1 w" DS_D $end
$var wire 1 x" DS_C $end
$var wire 1 y" DS_B $end
$var wire 1 z" DS_A $end
$var wire 1 {" DIOD $end
$scope module clock $end
$var reg 1 n" clk $end
$upscope $end
$scope module decode $end
$var wire 1 n" clk $end
$var wire 16 |" out_insn [15:0] $end
$var wire 16 }" w_insn [15:0] $end
$var wire 4 ~" store_value_reg [3:0] $end
$var wire 4 !# op2_reg_num [3:0] $end
$var wire 4 "# op1_reg_num [3:0] $end
$var wire 4 ## base_addr_reg [3:0] $end
$var reg 16 $# insn [15:0] $end
$var reg 4 %# regfile_port1_num [3:0] $end
$var reg 4 &# regfile_port2_num [3:0] $end
$upscope $end
$scope module exec $end
$var wire 1 n" clk $end
$var wire 16 '# fetch_program_counter [15:0] $end
$var wire 1 (# is_nop $end
$var wire 16 )# out_insn [15:0] $end
$var wire 16 *# w_insn [15:0] $end
$var wire 16 +# value_to_write [15:0] $end
$var wire 16 ,# ro_port2_value [15:0] $end
$var wire 16 -# ro_port1_value [15:0] $end
$var wire 16 .# op2 [15:0] $end
$var wire 16 /# op1 [15:0] $end
$var wire 16 0# offset [15:0] $end
$var wire 8 1# new_alu_flags [7:0] $end
$var wire 1 b" mem_wo_port_enable $end
$var wire 1 e" mem_ro_port_enable $end
$var wire 1 2# fetch_branch_flag $end
$var wire 8 3# alu_flags [7:0] $end
$var wire 16 4# address_offset [15:0] $end
$var wire 16 5# address_base [15:0] $end
$var reg 4 6# by_pass_reg_num [3:0] $end
$var reg 16 7# by_pass_reg_value [15:0] $end
$var reg 16 8# insn [15:0] $end
$var reg 16 9# mem_ro_port_address [15:0] $end
$var reg 16 :# mem_wo_port_address [15:0] $end
$var reg 16 ;# mem_wo_port_value [15:0] $end
$var reg 16 <# res [15:0] $end
$var reg 1 [" wo_port_enable $end
$var reg 4 =# wo_port_reg_num [3:0] $end
$var reg 16 ># wo_port_value [15:0] $end
$upscope $end
$scope module fetch $end
$var wire 1 ?# branch_flag $end
$var wire 1 n" clk $end
$var wire 16 @# exec_program_counter [15:0] $end
$var wire 16 A# program_counter [15:0] $end
$var wire 16 B# regfile_read_value [15:0] $end
$var wire 16 C# rom_address [15:0] $end
$var wire 16 D# rom_read_value [15:0] $end
$var wire 16 E# regfile_write_value [15:0] $end
$var wire 16 F# next_program_counter [15:0] $end
$var wire 16 G# insn [15:0] $end
$var reg 1 H# stall_controller $end
$upscope $end
$scope module out_controller $end
$var wire 1 n" CLK $end
$var wire 16 I# diod_pwm [15:0] $end
$var wire 16 J# seg_hex [15:0] $end
$var wire 4 K# segen [3:0] $end
$var wire 7 L# seg_pins [6:0] $end
$var wire 28 M# seg [27:0] $end
$var wire 1 N# diod_fast_clk $end
$var wire 16 O# diod_clock_threshold [15:0] $end
$var wire 1 P# clkdiv $end
$var wire 1 p" DS_G $end
$var wire 1 q" DS_F $end
$var wire 1 r" DS_EN4 $end
$var wire 1 s" DS_EN3 $end
$var wire 1 t" DS_EN2 $end
$var wire 1 u" DS_EN1 $end
$var wire 1 v" DS_E $end
$var wire 1 w" DS_D $end
$var wire 1 x" DS_C $end
$var wire 1 y" DS_B $end
$var wire 1 z" DS_A $end
$var wire 1 {" DIOD $end
$scope module Clkdiv1 $end
$var wire 1 n" clk $end
$var wire 1 P# clk_out $end
$var reg 6 Q# cnt [5:0] $end
$upscope $end
$scope module Clkdiv2 $end
$var wire 1 n" clk $end
$var wire 1 N# clk_out $end
$var reg 14 R# cnt [13:0] $end
$upscope $end
$scope module Hex2seg_0 $end
$var wire 4 S# hex [3:0] $end
$var reg 7 T# seg [6:0] $end
$upscope $end
$scope module Hex2seg_1 $end
$var wire 4 U# hex [3:0] $end
$var reg 7 V# seg [6:0] $end
$upscope $end
$scope module Hex2seg_2 $end
$var wire 4 W# hex [3:0] $end
$var reg 7 X# seg [6:0] $end
$upscope $end
$scope module Hex2seg_3 $end
$var wire 4 Y# hex [3:0] $end
$var reg 7 Z# seg [6:0] $end
$upscope $end
$scope module SegMgr $end
$var wire 1 P# clk $end
$var wire 28 [# seg [27:0] $end
$var reg 2 \# cnt [1:0] $end
$var reg 7 ]# seg_pins [6:0] $end
$var reg 4 ^# segen [3:0] $end
$upscope $end
$scope module pwm_diod $end
$var wire 16 _# duty_cycle [15:0] $end
$var wire 1 n" ref_clk $end
$var wire 1 {" clk $end
$var reg 16 `# cnt [15:0] $end
$upscope $end
$upscope $end
$scope module ram $end
$var wire 1 n" clk $end
$var wire 16 a# diod_output [15:0] $end
$var wire 16 b# pwm_output [15:0] $end
$var wire 16 c# ro_port_address [15:0] $end
$var wire 1 e" ro_port_enable $end
$var wire 16 d# seg_output [15:0] $end
$var wire 16 e# wo_port_address [15:0] $end
$var wire 1 b" wo_port_enable $end
$var wire 16 f# wo_port_value [15:0] $end
$var reg 16 g# ro_port_value [15:0] $end
$upscope $end
$scope module regfile $end
$var wire 8 h# alu_flags_output [7:0] $end
$var wire 1 n" clk $end
$var wire 16 i# fetch_write_value [15:0] $end
$var wire 8 j# new_alu_flags [7:0] $end
$var wire 4 k# ro_port1_reg_num [3:0] $end
$var wire 4 l# ro_port2_reg_num [3:0] $end
$var wire 1 [" wo_port1_enable $end
$var wire 4 m# wo_port1_reg_num [3:0] $end
$var wire 16 n# wo_port1_value [15:0] $end
$var wire 16 o# zero [15:0] $end
$var wire 16 p# wo_port2_value [15:0] $end
$var wire 4 q# wo_port2_reg_num [3:0] $end
$var wire 1 X" wo_port2_enable $end
$var wire 16 r# fetch_read_value [15:0] $end
$var reg 8 s# alu_flags [7:0] $end
$var reg 16 t# program_counter [15:0] $end
$var reg 16 u# ro_port1_value [15:0] $end
$var reg 16 v# ro_port2_value [15:0] $end
$var reg 16 w# stack_pointer [15:0] $end
$upscope $end
$scope module rom $end
$var wire 16 x# fetch_address [15:0] $end
$var reg 16 y# fetch_read_value [15:0] $end
$upscope $end
$scope module wb $end
$var wire 1 n" clk $end
$var wire 16 z# mem_ro_port_value [15:0] $end
$var wire 16 {# w_insn [15:0] $end
$var wire 16 |# regfile_wo_port_value [15:0] $end
$var wire 4 }# regfile_wo_port_reg_num [3:0] $end
$var reg 16 ~# insn [15:0] $end
$var reg 1 X" regfile_wo_port_enable $end
$upscope $end
$upscope $end
$enddefinitions $end
#0
$dumpvars
bx ~#
b0 }#
b0 |#
bx {#
bx z#
b11010100000001 y#
b0 x#
b0 w#
bx v#
bx u#
b0 t#
b0 s#
b0 r#
b0 q#
b0 p#
b0 o#
bx n#
bx m#
bx l#
bx k#
b0 j#
b1 i#
b0 h#
bx g#
bx f#
bx e#
b0 d#
bx c#
b0 b#
b0 a#
b0 `#
b0 _#
bx ^#
bx ]#
b0 \#
b1111110111111011111101111110 [#
b1111110 Z#
b0 Y#
b1111110 X#
b0 W#
b1111110 V#
b0 U#
b1111110 T#
b0 S#
b0 R#
b0 Q#
0P#
b0 O#
0N#
b1111110111111011111101111110 M#
bx L#
bx K#
b0 J#
b0 I#
xH#
b11010100000001 G#
b1 F#
b1 E#
b11010100000001 D#
b0 C#
b0 B#
b0 A#
bx @#
0?#
bx >#
bx =#
bx <#
bx ;#
bx :#
bx 9#
bx 8#
bx 7#
bx 6#
bx 5#
bx 4#
b0 3#
02#
b0 1#
bx 0#
bx /#
bx .#
bx -#
bx ,#
bx +#
bx *#
bx )#
x(#
bx '#
bx &#
bx %#
bx $#
bx ##
bx "#
bx !#
bx ~"
b11010100000001 }"
bx |"
0{"
xz"
xy"
xx"
xw"
xv"
xu"
xt"
xs"
xr"
xq"
xp"
b0 o"
0n"
bx m"
b0 l"
b0xxxxxxxxxxxxxxxx k"
b0 j"
bx i"
b11010100000001 h"
b10000000000000000 g"
bx f"
0e"
bx d"
bx c"
0b"
bx a"
bx `"
bx _"
bx ^"
bx ]"
b11010100000001 \"
x["
bx Z"
bx Y"
xX"
b0 W"
b0 V"
b0 U"
b0 T"
b0 S"
1R"
bz Q"
zP"
bx O"
b0 N"
b0 M"
bx L"
bx K"
b11010100000001 J"
b0 I"
b0 H"
bx G"
bx F"
b0 E"
b0 D"
b0 C"
b0 B"
b0 A"
b0 @"
bx ?"
bx >"
bx ="
bx <"
b0 ;"
b1 :"
b0 9"
bx 8"
bx 7"
bx 6"
b0 5"
bx 4"
b0 3"
b0 2"
b0 1"
b0 0"
bx /"
bx ."
b0 -"
b1111110111111011111101111110 ,"
b1111110 +"
b0 *"
b1111110 )"
b0 ("
b1111110 '"
b0 &"
b1111110 %"
b0 $"
b0 #"
b0 ""
0!"
b0 ~
0}
b1111110111111011111101111110 |
bx {
bx z
b0 y
b0 x
xw
b11010100000001 v
b1 u
b1 t
b11010100000001 s
b0 r
b0 q
b0 p
bx o
0n
bx m
bx l
bx k
bx j
bx i
bx h
bx g
bx f
bx e
bx d
bx c
b0 b
0a
b0 `
bx _
bx ^
bx ]
bx \
bx [
bx Z
bx Y
bx X
xW
bx V
bx U
bx T
bx S
bx R
bx Q
bx P
bx O
b11010100000001 N
bx M
b0 L
0K
xJ
xI
xH
xG
xF
xE
xD
xC
xB
xA
x@
b0 ?
0>
bx =
b0 <
b0xxxxxxxxxxxxxxxx ;
b0 :
bx 9
b11010100000001 8
b10000000000000000 7
bx 6
05
bx 4
bx 3
02
bx 1
bx 0
bx /
bx .
bx -
b11010100000001 ,
x+
bx *
bx )
x(
b0 '
b0 &
b0 %
b0 $
z#
b0 "
z!
$end
#5000
b11011101000000 h"
b11011101000000 }"
b11011101000000 G#
b11011101000000 D#
b11011101000000 y#
b10 i#
b10 E#
b1 x#
b10 F#
b1 !#
b0 "#
b10011011101000000 \"
b1 C#
b1 A#
b1 B#
b100 ##
b1101 ~"
b0 ]"
b0 ,#
b0 v#
b0 _"
b0 -#
b0 u#
b100000000000000001 g"
b1 r#
b1 t#
b11010100000001 m"
b11010100000001 |"
b11010100000001 *#
b11010100000001 $#
0X"
b1 `#
b1 Q#
b1 R#
1n"
#10000
0n"
#15000
b11001100010000 h"
b11001100010000 }"
b11001100010000 G#
b11001100010000 D#
b11001100010000 y#
b11 i#
b11 E#
b1 @#
b0 /#
b0 .#
b0 5#
b0 +#
b0 !#
b100 "#
b10 x#
b11 F#
1["
b1 Y"
b1 >#
b1 n#
b101 Z"
b101 =#
b101 m#
b1 k"
b1 '#
b1 <#
0(#
b10100000001 0#
b1 4#
b1101 ##
b100011001100010000 \"
b10 C#
b10 A#
b10 B#
b10 R#
b10 Q#
b10 `#
b11010100000001 i"
b11010100000001 )#
b11010100000001 {#
b11010100000001 8#
b11011101000000 m"
b11011101000000 |"
b11011101000000 *#
b11011101000000 $#
b110000000000000010 g"
b10 r#
b10 t#
1n"
#20000
0n"
#25000
b10001100110011 h"
b10001100110011 }"
b10001100110011 G#
b10001100110011 D#
b10001100110011 y#
b100 i#
b100 E#
b11 x#
b100 F#
b1 "#
b1000000 @#
b110010001100110011 \"
b11 C#
b11 A#
b11 B#
b1100 ##
b1100 ~"
b1000000 Y"
b1000000 >#
b1000000 n#
b111 Z"
b111 =#
b111 m#
b1000000 k"
b1000000 '#
b1000000 <#
b11101000000 0#
b0 4#
b1000000000000000011 g"
b11 r#
b11 t#
b11001100010000 m"
b11001100010000 |"
b11001100010000 *#
b11001100010000 $#
b1 7#
b101 6#
b11011101000000 i"
b11011101000000 )#
b11011101000000 {#
b11011101000000 8#
b11010100000001 ~#
b11 `#
b11 Q#
b11 R#
1n"
#30000
0n"
#35000
b10011101110111 h"
b10011101110111 }"
b10011101110111 G#
b10011101110111 D#
b10011101110111 y#
b11 ^"
b11 &#
b11 l#
b11 `"
b11 %#
b11 k#
b101 i#
b101 E#
b10000 @#
b11 !#
b11 "#
b100 x#
b101 F#
b10000 Y"
b10000 >#
b10000 n#
b11 Z"
b11 =#
b11 m#
b10000 k"
b10000 '#
b10000 <#
b1100010000 0#
b10000 4#
b1000 ~"
b1000010011101110111 \"
b100 C#
b100 A#
b100 B#
b100 R#
b100 Q#
b100 `#
b11011101000000 ~#
b1000000 7#
b111 6#
b11001100010000 i"
b11001100010000 )#
b11001100010000 {#
b11001100010000 8#
b10001100110011 m"
b10001100110011 |"
b10001100110011 *#
b10001100110011 $#
b1010000000000000100 g"
b100 r#
b100 t#
1n"
#40000
0n"
#45000
b11001000010000 h"
b11001000010000 }"
b11001000010000 G#
b11001000010000 D#
b11001000010000 y#
b111 ^"
b111 &#
b111 l#
b111 `"
b111 %#
b111 k#
b110 i#
b110 E#
b0 j"
b0 1#
b0 j#
b101 x#
b110 F#
b111 !#
b111 "#
b100000000 @#
bx +#
b10000 .#
bx 5#
b10000 /#
b1010011001000010000 \"
b101 C#
b101 A#
b101 B#
b1101 ##
b1001 ~"
b100000000 Y"
b100000000 >#
b100000000 n#
b100000000 k"
b100000000 '#
b100000000 <#
b1100110011 0#
b1111111111110011 4#
bx ]"
bx ,#
bx v#
bx _"
bx -#
bx u#
b1100000000000000101 g"
b101 r#
b101 t#
b10011101110111 m"
b10011101110111 |"
b10011101110111 *#
b10011101110111 $#
b10000 7#
b11 6#
b10001100110011 i"
b10001100110011 )#
b10001100110011 {#
b10001100110011 8#
b11001100010000 ~#
b101 `#
b101 Q#
b101 R#
1n"
#50000
0n"
#55000
b11010011111111 h"
b11010011111111 }"
b11010011111111 G#
b11010011111111 D#
b11010011111111 y#
b111 i#
b1000000000000 @#
b111 E#
b0 !#
b1 "#
b1000000000000 Y"
b1000000000000 >#
b1000000000000 n#
b1000000000000 k"
b1000000000000 '#
b1000000000000 <#
b110 x#
b111 F#
b1000000 /#
b1000000 .#
b11101110111 0#
b1111111111110111 4#
b1000 ##
b1100 ~"
b1000000 +#
b1000000 5#
b111 Z"
b111 =#
b111 m#
b1100011010011111111 \"
b110 C#
b110 A#
b110 B#
b110 R#
b110 Q#
b110 `#
b10001100110011 ~#
b100000000 7#
b10011101110111 i"
b10011101110111 )#
b10011101110111 {#
b10011101110111 8#
b11001000010000 m"
b11001000010000 |"
b11001000010000 *#
b11001000010000 $#
b1000000 ]"
b1000000 ,#
b1000000 v#
b1000000 _"
b1000000 -#
b1000000 u#
b1110000000000000110 g"
b110 r#
b110 t#
1n"
#60000
0n"
#65000
b100000110000 h"
b100000110000 }"
b100000110000 G#
b100000110000 D#
b100000110000 y#
b1000 i#
b1000 E#
b111 x#
b1000 F#
b1111 !#
b1111 "#
b10000 @#
b1110000100000110000 \"
b111 C#
b111 A#
b111 B#
b11 ##
b1101 ~"
b10000 Y"
b10000 >#
b10000 n#
b10 Z"
b10 =#
b10 m#
b10000 k"
b10000 '#
b10000 <#
b1000010000 0#
b10000 4#
b10000000000000000111 g"
b111 r#
b111 t#
b11010011111111 m"
b11010011111111 |"
b11010011111111 *#
b11010011111111 $#
b1000000000000 7#
b111 6#
b11001000010000 i"
b11001000010000 )#
b11001000010000 {#
b11001000010000 8#
b10011101110111 ~#
b111 `#
b111 Q#
b111 R#
1n"
#70000
0n"
#75000
b1110001001000010 h"
b1110001001000010 }"
b1110001001000010 G#
b1110001001000010 D#
b1110001001000010 y#
b0 ^"
b0 &#
b0 l#
b11 `"
b11 %#
b11 k#
b1001 i#
b10 j"
b10 1#
b10 j#
b1001 E#
b0 !#
b11 "#
b1111111111111111 @#
b1000 x#
b1001 F#
b10011111111 0#
b1111111111111111 4#
b0 ##
b10 ~"
b1000000000000 +#
b1000000000000 .#
b1000000000000 5#
b1000000000000 /#
b1111111111111111 Y"
b1111111111111111 >#
b1111111111111111 n#
b100 Z"
b100 =#
b100 m#
b1111111111111111 k"
b1111111111111111 '#
b1111111111111111 <#
b10001110001001000010 \"
b1000 C#
b1000 A#
b1000 B#
b1000 R#
b1000 Q#
b1000 `#
b11001000010000 ~#
b10000 7#
b10 6#
b11010011111111 i"
b11010011111111 )#
b11010011111111 {#
b11010011111111 8#
b100000110000 m"
b100000110000 |"
b100000110000 *#
b100000110000 $#
b1000000000000 ]"
b1000000000000 ,#
b1000000000000 v#
b1000000000000 _"
b1000000000000 -#
b1000000000000 u#
b10010000000000001000 g"
b1000 r#
b1000 t#
1n"
#80000
0n"
#85000
b1110001001000000 h"
b1110001001000000 }"
b1110001001000000 G#
b1110001001000000 D#
b1110001001000000 y#
b1000 ^"
b1000 &#
b1000 l#
b1001 `"
b1001 %#
b1001 k#
b1010 i#
b1010 E#
b0 j"
b0 1#
b0 j#
b1001 x#
b1010 F#
b10 !#
b100 "#
b100000000 @#
b0 +#
b0 .#
b100000000 5#
b100000000 /#
b10011110001001000000 \"
b1001 C#
b1001 A#
b1001 B#
b1001 ##
b1000 ~"
b100000000 Y"
b100000000 >#
b100000000 n#
b1000 Z"
b1000 =#
b1000 m#
b100000000 k"
b100000000 '#
b100000000 <#
b1111100000110000 0#
b1111111111110000 4#
b0 ]"
b0 ,#
b0 v#
b100000000 _"
b100000000 -#
b100000000 u#
b10 o"
b10 3#
b10 h#
b10 s#
b10100000000000001001 g"
b1001 r#
b1001 t#
b1110001001000010 m"
b1110001001000010 |"
b1110001001000010 *#
b1110001001000010 $#
b1111111111111111 7#
b100 6#
b100000110000 i"
b100000110000 )#
b100000110000 {#
b100000110000 8#
b11010011111111 ~#
b1001 `#
b1001 Q#
b1001 R#
1n"
#90000
0n"
#95000
b100010000101 h"
b100010000101 }"
b100010000101 G#
b100010000101 D#
b100010000101 y#
b1011 i#
b1011 E#
b0 !#
b10 @#
b1010 x#
b1011 F#
b1001000010 0#
b10 4#
1b"
b100000000 +#
bx .#
b0 5#
b0 /#
b100000000 a"
b100000000 ;#
b100000000 f#
b10 c"
b10 :#
b10 e#
b10 k"
b10 '#
b10 <#
b10100000100010000101 \"
b1010 C#
b1010 A#
b1010 B#
b1010 R#
b1010 Q#
b1010 `#
b100000110000 ~#
b100000000 7#
b1000 6#
b1110001001000010 i"
b1110001001000010 )#
b1110001001000010 {#
b1110001001000010 8#
b1110001001000000 m"
b1110001001000000 |"
b1110001001000000 *#
b1110001001000000 $#
bx ]"
bx ,#
bx v#
b0 _"
b0 -#
b0 u#
b0 o"
b0 3#
b0 h#
b0 s#
b10110000000000001010 g"
b1010 r#
b1010 t#
1n"
#100000
0n"
#105000
b1000010000111 h"
b1000010000111 }"
b1000010000111 G#
b1000010000111 D#
b1000010000111 y#
b101 ^"
b101 &#
b101 l#
b1000 `"
b1000 %#
b1000 k#
b1100 i#
b1100 E#
b1011 x#
b1100 F#
b101 !#
b1000 "#
b0 @#
b100000000 .#
b10110001000010000111 \"
b1011 C#
b1011 A#
b1011 B#
b10 ##
b10 ~"
b0 c"
b0 :#
b0 e#
b0 k"
b0 '#
b0 <#
b1001000000 0#
b0 4#
1{"
b100000000 ]"
b100000000 ,#
b100000000 v#
b11000000000000001011 g"
b1011 r#
b1011 t#
b100010000101 m"
b100010000101 |"
b100010000101 *#
b100010000101 $#
b1110001001000000 i"
b1110001001000000 )#
b1110001001000000 {#
b1110001001000000 8#
b1110001001000010 ~#
b100000000 T"
b100000000 I#
b100000000 _#
b100000000 b#
b1011 `#
b1011 Q#
b1011 R#
1n"
#110000
0n"
